<?xml version="1.0" encoding="iso-8859-1"?>
<!-- Generator: Adobe Illustrator 19.1.1, SVG Export Plug-In . SVG Version: 6.00 Build 0)  -->
<svg version="1.1" id="Calque_1" xmlns="http://www.w3.org/2000/svg" xmlns:xlink="http://www.w3.org/1999/xlink" x="0px" y="0px"
	 viewBox="0 0 110 24.699" style="enable-background:new 0 0 110 24.699;" xml:space="preserve">
<g>
	<g>
		<g>
			<g>
				<g>
					<path style="fill:#84A010;" d="M93.685,114.124H25.914c-5.99,0-10.863-4.509-10.863-10.051c0-5.543,4.873-10.053,10.863-10.053
						h67.771c5.986,0,10.855,4.51,10.855,10.053C104.541,109.615,99.672,114.124,93.685,114.124z M25.914,95.521
						c-5.162,0-9.361,3.837-9.361,8.553c0,4.715,4.199,8.551,9.361,8.551h67.771c5.158,0,9.355-3.836,9.355-8.551
						c0-4.716-4.197-8.553-9.355-8.553H25.914z"/>
				</g>
			</g>
		</g>
	</g>
	<rect x="59.297" y="95.521" style="fill:#B2C72C;" width="1" height="17.104"/>
	<rect x="81.176" y="95.521" style="fill:#B2C72C;" width="1" height="17.104"/>
	<rect x="37.42" y="95.521" style="fill:#B2C72C;" width="1" height="17.104"/>
</g>
<g>
	<g>
		<g>
			<g>
				<g>
					<path style="fill:#9362BA;" d="M94.404,71.655H26.599c-5.992,0-10.867-4.508-10.867-10.051s4.875-10.053,10.867-10.053h67.805
						c5.988,0,10.861,4.51,10.861,10.053S100.392,71.655,94.404,71.655z M26.599,53.052c-5.165,0-9.366,3.838-9.366,8.553
						c0,4.715,4.201,8.551,9.366,8.551h67.805c5.161,0,9.36-3.836,9.36-8.551c0-4.715-4.199-8.553-9.36-8.553H26.599z"/>
				</g>
			</g>
		</g>
	</g>
	<rect x="60.423" y="53.052" style="fill:#9362BA;" width="1.001" height="17.104"/>
	<rect x="82.311" y="53.052" style="fill:#9362BA;" width="1.001" height="17.104"/>
	<rect x="38.534" y="53.052" style="fill:#9362BA;" width="1.001" height="17.104"/>
</g>
<path style="fill:#CDAEE7;" d="M66.741,1.659H12.952c-6.346,0-11.507,4.715-11.507,10.508c0,5.793,5.162,10.505,11.507,10.505
	h53.789V1.659z"/>
<g>
	<g>
		<g>
			<g>
				<g>
					<path style="fill:#9362BA;" d="M96.656,24.699H13.351C5.989,24.699,0,19.161,0,12.351C0,5.541,5.989,0,13.351,0h83.304
						C104.013,0,110,5.541,110,12.351C110,19.161,104.013,24.699,96.656,24.699z M13.351,1.843c-6.346,0-11.507,4.715-11.507,10.508
						c0,5.793,5.162,10.505,11.507,10.505h83.304c6.341,0,11.5-4.713,11.5-10.505c0-5.793-5.159-10.508-11.5-10.508H13.351z"/>
				</g>
			</g>
		</g>
	</g>
	<rect x="54.906" y="1.843" style="fill:#9362BA;" width="1.23" height="21.013"/>
	<rect x="81.799" y="1.843" style="fill:#9362BA;" width="1.23" height="21.013"/>
	<rect x="28.014" y="1.843" style="fill:#9362BA;" width="1.23" height="21.013"/>
</g>
</svg>
