<?xml version="1.0" encoding="iso-8859-1"?>
<!-- Generator: Adobe Illustrator 19.1.0, SVG Export Plug-In . SVG Version: 6.00 Build 0)  -->
<svg version="1.1" id="Calque_1" xmlns="http://www.w3.org/2000/svg" xmlns:xlink="http://www.w3.org/1999/xlink" x="0px" y="0px"
	 viewBox="0 0 14 14" style="enable-background:new 0 0 14 14;" xml:space="preserve">
<g>
	<g>
		<g>
			<path style="fill:#169FDB;" d="M14,14H0v-0.342c0-2.205,1.148-4.1,4.385-4.1h0.09l0.074,0.047
				c1.453,0.846,3.322,0.832,4.763-0.033l0.077-0.047h0.09c1.75,0,4.521,0.625,4.521,4.133V14z M0.676,13.316h12.648
				c-0.181-2.996-2.729-3.066-3.757-3.107c-1.605,0.924-3.652,0.938-5.267,0.033C1.778,10.283,0.783,11.461,0.676,13.316z"/>
		</g>
		<g>
			<path style="fill:#169FDB;" d="M6.901,9.359c-2.521,0-4.571-2.1-4.571-4.682C2.33,2.1,4.381,0,6.901,0
				c2.522,0,4.573,2.1,4.573,4.678C11.475,7.26,9.424,9.359,6.901,9.359z M6.901,0.682c-2.153,0-3.903,1.795-3.903,3.996
				c0,2.205,1.75,4,3.903,4c2.154,0,3.907-1.795,3.907-4C10.809,2.477,9.056,0.682,6.901,0.682z"/>
		</g>
	</g>
</g>
</svg>
